<?xml version="1.0" encoding="UTF-8" standalone="no"?>
<!-- Created with Inkscape (http://www.inkscape.org/) -->

<svg
   xmlns:dc="http://purl.org/dc/elements/1.1/"
   xmlns:cc="http://creativecommons.org/ns#"
   xmlns:rdf="http://www.w3.org/1999/02/22-rdf-syntax-ns#"
   xmlns:svg="http://www.w3.org/2000/svg"
   xmlns="http://www.w3.org/2000/svg"
   xmlns:sodipodi="http://sodipodi.sourceforge.net/DTD/sodipodi-0.dtd"
   xmlns:inkscape="http://www.inkscape.org/namespaces/inkscape"
   width="128"
   height="128"
   viewBox="0 0 33.866666 33.866668"
   version="1.1"
   id="svg924"
   inkscape:version="0.92.4 5da689c313, 2019-01-14"
   sodipodi:docname="sysIcon.svg">
  <defs
     id="defs918" />
  <sodipodi:namedview
     id="base"
     pagecolor="#ffffff"
     bordercolor="#666666"
     borderopacity="1.0"
     inkscape:pageopacity="0.0"
     inkscape:pageshadow="2"
     inkscape:zoom="2.8"
     inkscape:cx="32.485698"
     inkscape:cy="118.84208"
     inkscape:document-units="px"
     inkscape:current-layer="layer1"
     showgrid="false"
     units="px"
     inkscape:window-width="1920"
     inkscape:window-height="1016"
     inkscape:window-x="1920"
     inkscape:window-y="27"
     inkscape:window-maximized="1" />
  <metadata
     id="metadata921">
    <rdf:RDF>
      <cc:Work
         rdf:about="">
        <dc:format>image/svg+xml</dc:format>
        <dc:type
           rdf:resource="http://purl.org/dc/dcmitype/StillImage" />
        <dc:title></dc:title>
      </cc:Work>
    </rdf:RDF>
  </metadata>
  <g
     inkscape:label="Layer 1"
     inkscape:groupmode="layer"
     id="layer1"
     transform="translate(0,-263.13333)">
    <g
       id="sysIcon_128"
       transform="translate(-86.434958,-11.228913)"
       inkscape:label="#g916">
      <rect
         y="274.36224"
         x="86.434959"
         height="33.866665"
         width="33.866665"
         id="rect909"
         style="opacity:1;fill:#00d400;fill-opacity:0;stroke:none;stroke-width:0.26458332;stroke-linecap:round;stroke-miterlimit:4;stroke-dasharray:none;stroke-opacity:1" />
      <g
         inkscape:export-ydpi="256"
         inkscape:export-xdpi="256"
         inkscape:export-filename="/home/cosku/Documents/Go/src/gitlab.com/wirevpn/desktop-app/images/sysIcon_128.png"
         transform="matrix(2.4583333,0,0,2.4583333,68.125383,-409.9638)"
         id="g2081">
        <circle
           style="opacity:1;fill:#2a5298;fill-opacity:1;stroke:none;stroke-width:0.12206172;stroke-linecap:round;stroke-miterlimit:4;stroke-dasharray:none;stroke-opacity:1"
           id="path1673"
           cx="14.336099"
           cy="285.25806"
           r="6.3499999" />
        <path
           sodipodi:nodetypes="cc"
           inkscape:connector-curvature="0"
           id="path1651"
           d="m 14.054221,282.21127 c 2.494192,0.39729 4.185516,2.06994 3.656497,3.51633"
           style="fill:none;stroke:#ffffff;stroke-width:0.87769336;stroke-linecap:round;stroke-linejoin:miter;stroke-miterlimit:4;stroke-dasharray:none;stroke-opacity:1" />
        <path
           sodipodi:nodetypes="cccc"
           inkscape:connector-curvature="0"
           id="path1653"
           d="m 12.554427,288.16974 c 0.834252,0.32136 3.554446,0.61941 4.095568,-0.9746 0.58835,-2.11773 -4.6152,-4.71942 -5.695462,-3.00221 -1.1493326,1.95736 2.515795,2.80337 3.993249,2.54149"
           style="fill:none;stroke:#ffffff;stroke-width:0.87769336;stroke-linecap:round;stroke-linejoin:miter;stroke-miterlimit:4;stroke-dasharray:none;stroke-opacity:1" />
      </g>
    </g>
  </g>
</svg>
